{
   "instanceId":  "{{instanceId}}",
   "containerId": "21D50DF8-A522-4E58-9FD8-90F8916EBEEF",
   "values": {
      "DesAdqPolTuHijSeg": "",
      "ParBenTuHijSeg": "",
      "BenPolTuHijSeg": "",
      "CanBenPolTuHijSeg": "",
      "DesAdqPlaPreExe": "",
      "TraEntExe": "",
      "AfiAdiPolExe": "",
      "BenAuxInmPolExe": "",
      "DecNoPadEnfCroPolVid": "",
      "PlaTitPolVid": "",
      "BenTitPolVid": "",
      "SumPorTitPolVid": "",
      "DesPolCon": "",
      "PlaConPolVid": "",
      "BenConPolVid": "",
      "SumPorConPolVid": "",
      "Ppi10_MatPrePisViv": "",
      "DesAdqPolDan": "",
      "RieAsePolDan": "",
      "TipConPolDan": "",
      "DesAseEdi": "",
      "PlaCobEdi": "",
      "DesAseCon": "",
      "PlaConSub": "",
      "DesAgrRieAdi": "",
      "RieAsePolDanAdi": "",
      "TipConPolDanAdi": "",
      "DesAseEdiAdi": "",
      "PlaCobEdiAdi": "",
      "DesAseConAdi": "",
      "PlaCobConAdi": "",
      "DesAseSubAdi": "",
      "PlaConSubAdi": "",
      "UniFamSegExt": "",
      "TipSegUniFam": ""
   }
}