{
   "instanceId":  "{{instanceId}}",
   "containerId": "7DA96C69-418F-4C36-9DEF-10B309F5F528",
   "values": {
      "ProyNroCreGenExt": "",
      "ValCuoyPerUltCreDes": "",
      "NomComIdeCon": "",
      "Tel1Con": "",
      "Tel2Con": "",
      "Tel3Con": "",
      "Tel4Con": "",
      "NomComIdeCod1": "",
      "Tel1Cod1": "",
      "Tel2Cod1": "",
      "Tel3Cod1": "",
      "Tel4Cod1": "",
      "NomComIdeCod2": "",
      "Tel1Cod2": "",
      "Tel2Cod2": "",
      "Tel3Cod2": "",
      "Tel4Cod2": "",
      "ReaConIntSol": "",
      "ProSolEsp": "",
      "MonSolEsp": "",
      "PerSolEsp": "",
      "PlaSolEsp": "",
      "ProSug": "",
      "MonSug": "",
      "PerSug": "",
      "DesCre": "",
      "PlaSug": "",
      "CuoMaxRec": "",
      "ReqCorInfDil": "",
      "MenResConRut": "",
      "ValCuoRec": "",
      "ValTotPolOfrCli": "",
      "RutFor": "",
      "RecEva": "",
      "CauDenEva": "",
      "DesAgeNueVis": "",
      "FecProVis": "",
      "ObsRecEva": ""
   }
}