{
	"info": {
		"_postman_id": "a5e7451c-af61-420c-a5ab-e680e9bb92fc",
		"name": "Fdlm Engine copy",
		"schema": "https://schema.getpostman.com/json/collection/v2.1.0/collection.json"
	},
	"item": [
		{
			"name": "1. Login fdlm",
			"event": [
				{
					"listen": "test",
					"script": {
						"id": "defbccf6-5090-4952-a2e3-7bd81c39e0a7",
						"exec": [
							"",
							"pm.test(\"Status code is 200\", function () {",
							"    pm.response.to.have.status(200);",
							"});",
							"",
							"pm.test(\"Response includes access token\", function() {",
							"\tpm.expect(pm.response.json()).to.include.keys(\"access_token\");",
							"});",
							"",
							"let jsonData = JSON.parse(responseBody);",
							"pm.environment.set(\"access_token\", jsonData.access_token);",
							""
						],
						"type": "text/javascript"
					}
				}
			],
			"request": {
				"method": "POST",
				"header": [
					{
						"key": "Content-Type",
						"value": "application/x-www-form-urlencoded"
					}
				],
				"body": {
					"mode": "urlencoded",
					"urlencoded": [
						{
							"key": "client_id",
							"value": "{{client_id}}",
							"type": "text"
						},
						{
							"key": "password",
							"value": "{{password}}",
							"type": "text"
						},
						{
							"key": "username",
							"value": "{{username}}",
							"type": "text"
						},
						{
							"key": "grant_type",
							"value": "{{grant_type}}",
							"type": "text"
						},
						{
							"key": "client_secret",
							"value": "{{client_secret}}",
							"type": "text"
						},
						{
							"key": "response_type",
							"value": "token+token_id",
							"type": "text",
							"disabled": true
						},
						{
							"key": "scope",
							"value": "openid",
							"type": "text",
							"disabled": true
						},
						{
							"key": "resource",
							"value": "{{resource}}",
							"type": "text"
						}
					]
				},
				"url": {
					"raw": "https://login.microsoftonline.com/cd03d0b3-7569-435b-9b2d-857c640979de/oauth2/token",
					"protocol": "https",
					"host": [
						"login",
						"microsoftonline",
						"com"
					],
					"path": [
						"cd03d0b3-7569-435b-9b2d-857c640979de",
						"oauth2",
						"token"
					]
				}
			},
			"response": []
		},
		{
			"name": "2. Creación instancia",
			"event": [
				{
					"listen": "test",
					"script": {
						"id": "3e0b1dc1-d4a9-4e6f-8ac5-dc4c20b65cc9",
						"exec": [
							"pm.test(\"Status code is 200\", function () {",
							"    pm.response.to.have.status(200);",
							"});",
							"",
							"pm.test(\"La respuesta incluye instance id\"), function() {",
							"\tpm.expect(pm.response.json()).to.include.keys(\"instanceId\");",
							"}",
							"",
							"let jsonData = JSON.parse(responseBody);",
							"pm.environment.set(\"instanceId\", jsonData.instanceId);"
						],
						"type": "text/javascript"
					}
				}
			],
			"request": {
				"method": "POST",
				"header": [
					{
						"key": "Ocp-Apim-Subscription-Key",
						"value": "{{apim-subscription-key}}",
						"type": "text"
					},
					{
						"key": "Authorization",
						"value": "Bearer {{access_token}}",
						"type": "text"
					},
					{
						"key": "tenantId",
						"value": "{{tenantId}}",
						"type": "text"
					},
					{
						"key": "Content-Type",
						"name": "Content-Type",
						"value": "{{content-type}}",
						"type": "text"
					},
					{
						"key": "Ocp-Apim-Trace",
						"value": "true",
						"type": "text"
					},
					{
						"key": "agentId",
						"value": "{{agentId-asesor}}",
						"type": "text"
					}
				],
				"body": {
					"mode": "raw",
					"raw": "{\n\t\"definitionId\":\"{{definitionId}}\"\n}"
				},
				"url": {
					"raw": "https://gather-api.azure-api.net/fdlm-api/api/Instances",
					"protocol": "https",
					"host": [
						"gather-api",
						"azure-api",
						"net"
					],
					"path": [
						"fdlm-api",
						"api",
						"Instances"
					]
				}
			},
			"response": []
		},
		{
			"name": "3. Obtener instancia creada",
			"event": [
				{
					"listen": "test",
					"script": {
						"id": "012542e4-26ec-41a1-91fe-e7a5aa6dd0ee",
						"exec": [
							"pm.test(\"Status code is 200\", function () {",
							"    pm.response.to.have.status(200);",
							"});",
							"pm.test(\"La respuesta incluye values\", function () {",
							"\tpm.expect(pm.response.json()).to.include.keys(\"values\");",
							"});",
							"pm.test(\"trae preevaluacion abierta\", function (){",
							"    let preevaluacion = \"F5057794-0AC3-4C3A-A131-04858E764F27\";",
							"    let status = pm.response.json().values.containers[preevaluacion].customStatus;",
							"    pm.expect(status).to.eql(1);",
							"});"
						],
						"type": "text/javascript"
					}
				},
				{
					"listen": "prerequest",
					"script": {
						"id": "1fdc546e-dfe0-425f-be92-6a94a3cb1efa",
						"exec": [
							""
						],
						"type": "text/javascript"
					}
				}
			],
			"request": {
				"method": "GET",
				"header": [
					{
						"key": "Content-Type",
						"value": "{{content-type}}",
						"type": "text"
					},
					{
						"key": "Authorization",
						"value": "Bearer {{access_token}}",
						"type": "text"
					},
					{
						"key": "Ocp-Apim-Subscription-Key",
						"value": "{{apim-subscription-key}}"
					},
					{
						"key": "tenantId",
						"value": "{{tenantId}}",
						"type": "text"
					}
				],
				"body": {
					"mode": "raw",
					"raw": ""
				},
				"url": {
					"raw": "https://gather-api.azure-api.net/fdlm-api/api/Instances/{{instanceId}}",
					"protocol": "https",
					"host": [
						"gather-api",
						"azure-api",
						"net"
					],
					"path": [
						"fdlm-api",
						"api",
						"Instances",
						"{{instanceId}}"
					]
				}
			},
			"response": []
		},
		{
			"name": "4. Guardado parcial PreEvaluación",
			"event": [
				{
					"listen": "test",
					"script": {
						"id": "4454a51d-2631-4fc5-a1b0-daa933918412",
						"exec": [
							"pm.test(\"Status code is 200\", function () {",
							"    pm.response.to.have.status(200);",
							"});"
						],
						"type": "text/javascript"
					}
				}
			],
			"request": {
				"method": "PUT",
				"header": [
					{
						"key": "Content-Type",
						"name": "Content-Type",
						"value": "application/json",
						"type": "text"
					},
					{
						"key": "agentId",
						"value": "{{agentId-asesor}}",
						"type": "text"
					},
					{
						"key": "Authorization",
						"value": "Bearer {{access_token}}",
						"type": "text"
					},
					{
						"key": "Ocp-Apim-Subscription-Key",
						"value": "{{apim-subscription-key}}",
						"type": "text"
					},
					{
						"key": "tenantId",
						"value": "{{tenantId}}",
						"type": "text"
					}
				],
				"body": {
					"mode": "raw",
					"raw": "{\n   \"instanceId\":  \"{{instanceId}}\",\n   \"containerId\": \"F5057794-0AC3-4C3A-A131-04858E764F27\",\n   \"values\": {\n      \"Identificacion\":{\n      \t\"TipDocIdeCli\":[\"C\"],\n      \t\"NumDocIdeCliCiudadania\":\"129372017\",\n      \t\"PaiExpCli\": [\"CO\"]\n      },\n      \"NumSolCre\": \"281993\",\n      \"Titular\":{\n      \t\"PriNomCli\": \"Diana\",\n      \t\"SegNomCli\":\"Yareli\",\n      \t\"PriApeCli\": \"Paredes\",\n      \t\"SegApeCli\": \"Ortiz\"\n      },\n      \"TelDomCli\":\"88882111\",\n      \"CelPerCli\":\"3567891018\",\n      \"TelNegCli\": \"00001111\",\n      \"CelNegCli\": \"3567189102\",\n      \"NegEnDom\" : \"Si\",\n      \n      \"LocalizacionDomicilioTitular\": {\n      \t\"DirDomCli\": \"Carril 27-91\",\n      \t\"DeptoMunicipioBarrioDomicilio\":[\"5\", \"1\", \"2\"],\n      \t\"IndDirDomCli\":\"Frente a la parada de autobus\",\n      \t\t\"UbiDomCli\":{\n      \t\t\t\"latitudDomicilio\": \"19.0282\",\n      \t\t\t\"longitudDomicilio\": \"-99.02734\"\n      \t\t}\n      },\n      \"TipNeg\":[\"1\"],\n      \"LocalizacionNegocioTitular\": {\n      \t\"DirNegCli\": \"Carril 27-91\",\n      \t\"DeptoMunicipioBarrioNegocio\":[\"5\", \"1\", \"2\"],\n      \t\"IndDirNegCli\":\"Frente a la parada de autobus\",\n      \t\t\"UbiNegCli\":{\n      \t\t\t\"latitudNegocio\": \"19.0282\",\n      \t\t\t\"longitudNegocio\": \"-99.02734\"\n      \t\t}\n      },\n      \"HaPadSigEnf\":\"No\",\n      \"HaPadLimFis\":\"No\",\n      \"CumReqMin\": \"Si\",\n      \"LleSolOtroMom\": \"Si\",\n      \"FecProVis\":\"06/06/2019\"\n   }\n}"
				},
				"url": {
					"raw": "https://gather-api.azure-api.net/fdlm-api/api/Instances/putValue",
					"protocol": "https",
					"host": [
						"gather-api",
						"azure-api",
						"net"
					],
					"path": [
						"fdlm-api",
						"api",
						"Instances",
						"putValue"
					]
				}
			},
			"response": []
		},
		{
			"name": "5. Procesar Requisito PreEvaluación",
			"event": [
				{
					"listen": "test",
					"script": {
						"id": "4454a51d-2631-4fc5-a1b0-daa933918412",
						"exec": [
							"pm.test(\"Status code is 200\", function () {",
							"    pm.response.to.have.status(200);",
							"});"
						],
						"type": "text/javascript"
					}
				}
			],
			"request": {
				"method": "PUT",
				"header": [
					{
						"key": "Content-Type",
						"name": "Content-Type",
						"value": "application/json",
						"type": "text"
					},
					{
						"key": "agentId",
						"type": "text",
						"value": "{{agentId-asesor}}"
					},
					{
						"key": "Authorization",
						"type": "text",
						"value": "Bearer {{access_token}}"
					},
					{
						"key": "Ocp-Apim-Subscription-Key",
						"type": "text",
						"value": "{{apim-subscription-key}}"
					},
					{
						"key": "tenantId",
						"type": "text",
						"value": "{{tenantId}}"
					}
				],
				"body": {
					"mode": "raw",
					"raw": "{\n\t\"instanceId\": \"{{instanceId}}\", \n\t\"containerId\": \"F5057794-0AC3-4C3A-A131-04858E764F27\"\n}"
				},
				"url": {
					"raw": "https://gather-api.azure-api.net/fdlm-api/api/Instances/putProcessInstance",
					"protocol": "https",
					"host": [
						"gather-api",
						"azure-api",
						"net"
					],
					"path": [
						"fdlm-api",
						"api",
						"Instances",
						"putProcessInstance"
					]
				}
			},
			"response": []
		},
		{
			"name": "6. Obtener instancia Preevaluación",
			"event": [
				{
					"listen": "test",
					"script": {
						"id": "012542e4-26ec-41a1-91fe-e7a5aa6dd0ee",
						"exec": [
							"pm.test(\"Status code is 200\", function () {",
							"    pm.response.to.have.status(200);",
							"});",
							"",
							"pm.test(\"La respuesta incluye values\", function() {",
							"\tpm.expect(pm.response.json()).to.include.keys(\"values\");",
							"});",
							"",
							"pm.test(\"trae preevaluacion cerrada\", function (){",
							"    let preevaluacion = \"F5057794-0AC3-4C3A-A131-04858E764F27\";",
							"    let status = pm.response.json().values.containers[preevaluacion].customStatus;",
							"    pm.expect(status).to.eql(3);",
							"});",
							"",
							"pm.test(\"trae presolicitud abierta\", function (){",
							"    let presolicitud = \"4FAE0F21-C80B-4851-AD0E-9D682D338280\";",
							"    let status = pm.response.json().values.containers[presolicitud].customStatus;",
							"    pm.expect(status).to.eql(1);",
							"});"
						],
						"type": "text/javascript"
					}
				}
			],
			"request": {
				"method": "GET",
				"header": [
					{
						"key": "Content-Type",
						"type": "text",
						"value": "{{content-type}}"
					},
					{
						"key": "Authorization",
						"type": "text",
						"value": "Bearer {{access_token}}"
					},
					{
						"key": "Ocp-Apim-Subscription-Key",
						"value": "{{apim-subscription-key}}"
					},
					{
						"key": "tenantId",
						"type": "text",
						"value": "{{tenantId}}"
					}
				],
				"body": {
					"mode": "raw",
					"raw": ""
				},
				"url": {
					"raw": "https://gather-api.azure-api.net/fdlm-api/api/Instances/{{instanceId}}",
					"protocol": "https",
					"host": [
						"gather-api",
						"azure-api",
						"net"
					],
					"path": [
						"fdlm-api",
						"api",
						"Instances",
						"{{instanceId}}"
					]
				},
				"description": "Después de la Preevaluación"
			},
			"response": []
		},
		{
			"name": "10. Guardado parcial Presolicitud",
			"event": [
				{
					"listen": "test",
					"script": {
						"id": "4454a51d-2631-4fc5-a1b0-daa933918412",
						"exec": [
							"pm.test(\"Status code is 200\", function () {",
							"    pm.response.to.have.status(200);",
							"});"
						],
						"type": "text/javascript"
					}
				}
			],
			"request": {
				"method": "PUT",
				"header": [
					{
						"key": "Content-Type",
						"name": "Content-Type",
						"value": "application/json",
						"type": "text"
					},
					{
						"key": "agentId",
						"type": "text",
						"value": "{{agentId-asesor}}"
					},
					{
						"key": "Authorization",
						"type": "text",
						"value": "Bearer {{access_token}}"
					},
					{
						"key": "Ocp-Apim-Subscription-Key",
						"type": "text",
						"value": "{{apim-subscription-key}}"
					},
					{
						"key": "tenantId",
						"type": "text",
						"value": "{{tenantId}}"
					}
				],
				"body": {
					"mode": "raw",
					"raw": "{\n   \"instanceId\":  \"{{instanceId}}\",\n   \"containerId\": \"4FAE0F21-C80B-4851-AD0E-9D682D338280\",\n   \"values\": {\n      \"PersonData\":{\n            \"DatosId\": {\n                  \"PaisExpedicion\":[\"CO\"]\n            },\n            \"GenCli\": [\"F\"],\n            \"EstCivCli\": [\"A\"]\n      },\n      \"FecExpDocIdeCli\": \"03/07/1997\",\n      \"FecNacCli\": \"19/03/1979\",\n      \"CorEleCli\": \"Jessiale.270@gmail.com\",\n      \"NomNeg\": \"Nails  alejandra\",\n      \"FecCreNeg\": \"08/05/1999\",\n      \"CanActCli\": [\"1\"],\n      \"PlaInvCre\": [\n            {\n               \"Cantidad\": \"1\",\n               \"Descripcion\": \"Recojer saldo pendiente\",\n               \"Valor\": \"275.000\"\n            }\n      ],\n      \"MonSol\": \"4000000\",\n      \"PlaSol\": \"36\",\n      \"NumSolCre\": \"9041906186\",\n      \"ProSol\": [\"N\",\"353\",\"210\"]\n   }\n}"
				},
				"url": {
					"raw": "https://gather-api.azure-api.net/fdlm-api/api/Instances/putValue",
					"protocol": "https",
					"host": [
						"gather-api",
						"azure-api",
						"net"
					],
					"path": [
						"fdlm-api",
						"api",
						"Instances",
						"putValue"
					]
				}
			},
			"response": []
		},
		{
			"name": "11. Procesar Requisito Presolicitud",
			"event": [
				{
					"listen": "test",
					"script": {
						"id": "4454a51d-2631-4fc5-a1b0-daa933918412",
						"exec": [
							"pm.test(\"Status code is 200\", function () {",
							"    pm.response.to.have.status(200);",
							"});"
						],
						"type": "text/javascript"
					}
				}
			],
			"request": {
				"method": "PUT",
				"header": [
					{
						"key": "Content-Type",
						"name": "Content-Type",
						"type": "text",
						"value": "application/json"
					},
					{
						"key": "agentId",
						"type": "text",
						"value": "{{agentId-asesor}}"
					},
					{
						"key": "Authorization",
						"type": "text",
						"value": "Bearer {{access_token}}"
					},
					{
						"key": "Ocp-Apim-Subscription-Key",
						"type": "text",
						"value": "{{apim-subscription-key}}"
					},
					{
						"key": "tenantId",
						"type": "text",
						"value": "{{tenantId}}"
					}
				],
				"body": {
					"mode": "raw",
					"raw": "{\n\t\"instanceId\": \"{{instanceId}}\", \n\t\"containerId\": \"4FAE0F21-C80B-4851-AD0E-9D682D338280\"\n}"
				},
				"url": {
					"raw": "https://gather-api.azure-api.net/fdlm-api/api/Instances/putProcessInstance",
					"protocol": "https",
					"host": [
						"gather-api",
						"azure-api",
						"net"
					],
					"path": [
						"fdlm-api",
						"api",
						"Instances",
						"putProcessInstance"
					]
				}
			},
			"response": []
		},
		{
			"name": "12. Obtener instancia Presolicitud",
			"event": [
				{
					"listen": "test",
					"script": {
						"id": "9b2ba93a-b0b6-4656-8ad4-c5743015b54f",
						"exec": [
							"pm.test(\"Status code is 200\", function () {",
							"    pm.response.to.have.status(200);",
							"});",
							"",
							"pm.test(\"trae presolicitud validada\", function (){",
							"    let presolicitud = \"4FAE0F21-C80B-4851-AD0E-9D682D338280\";",
							"    let status = pm.response.json().values.containers[presolicitud].customStatus;",
							"    pm.expect(status).to.eql(3);",
							"});",
							"",
							"pm.test(\"trae análisis abierta\", function (){",
							"    let analisis = \"9580909E-777F-4F12-A93A-5F4A27E24AD6\";",
							"    let status = pm.response.json().values.containers[analisis].customStatus;",
							"    pm.expect(status).to.eql(1);",
							"});",
							"",
							"pm.test(\"trae fase solicitud abierta\", function (){",
							"    let faseSolicitud = \"5AE495EC-4E76-4159-99F2-747B46D9778C\";",
							"    let status = pm.response.json().values.containers[faseSolicitud].customStatus;",
							"    pm.expect(status).to.eql(1);",
							"});",
							"",
							""
						],
						"type": "text/javascript"
					}
				}
			],
			"request": {
				"method": "GET",
				"header": [
					{
						"key": "Content-Type",
						"value": "{{content-type}}",
						"type": "text"
					},
					{
						"key": "Authorization",
						"value": "Bearer {{access_token}}",
						"type": "text"
					},
					{
						"key": "Ocp-Apim-Subscription-Key",
						"value": "{{apim-subscription-key}}"
					},
					{
						"key": "tenantId",
						"value": "{{tenantId}}",
						"type": "text"
					}
				],
				"body": {
					"mode": "raw",
					"raw": ""
				},
				"url": {
					"raw": "https://gather-api.azure-api.net/fdlm-api/api/Instances/{{instanceId}}",
					"protocol": "https",
					"host": [
						"gather-api",
						"azure-api",
						"net"
					],
					"path": [
						"fdlm-api",
						"api",
						"Instances",
						"{{instanceId}}"
					]
				}
			},
			"response": []
		},
		{
			"name": "13. Guardado parcial Análisis",
			"event": [
				{
					"listen": "test",
					"script": {
						"id": "4454a51d-2631-4fc5-a1b0-daa933918412",
						"exec": [
							"pm.test(\"Status code is 200\", function () {",
							"    pm.response.to.have.status(200);",
							"});"
						],
						"type": "text/javascript"
					}
				}
			],
			"request": {
				"method": "PUT",
				"header": [
					{
						"key": "Content-Type",
						"name": "Content-Type",
						"value": "application/json",
						"type": "text"
					},
					{
						"key": "agentId",
						"type": "text",
						"value": "{{agentId-asesor}}"
					},
					{
						"key": "Authorization",
						"type": "text",
						"value": "Bearer {{access_token}}"
					},
					{
						"key": "Ocp-Apim-Subscription-Key",
						"type": "text",
						"value": "{{apim-subscription-key}}"
					},
					{
						"key": "tenantId",
						"type": "text",
						"value": "{{tenantId}}"
					}
				],
				"body": {
					"mode": "raw",
					"raw": "{\r\n      \"instanceId\": \"{{instanceId}}\",\r\n      \"containerId\": \"9580909E-777F-4F12-A93A-5F4A27E24AD6\",\r\n      \"values\": {\r\n            \"Ppi1_CuaMieTieHog\": [\"1\"],\r\n            \"CanMieUniFam\": \"5\",\r\n            \"CanPerDepCli\": \"1\",\r\n            \"CanHijCli\": \"1\",\r\n            \"Ppi2_NinActAsiEsc\": [\"1\"],\r\n            \"Ppi3_MieConNivEduAlt\": \"Si\",\r\n            \"TitFuePEP\": \"No\",\r\n            \"CarPubDesCli\": \"\",\r\n            \"TitVictPosCon\": \"No\",\r\n            \"CueConCer\": \"\",\r\n            \"TipSegSoc\": \"Si\",\r\n            \"Ppi4_MieHogTieTraCon\": \"No\",\r\n            \"Ppi5_MieHogObrEmp\": \"No\",\r\n            \"Ppi6_MieHogPatEmp\": \"No\",\r\n            \"AdiNegEsEmpCli\": \"No\",\r\n            \"DatLaboOtraAct\": {\r\n                  \"NomEmpLabCli\": \"\",\r\n                  \"AntVinEmp\": \"\",\r\n                  \"CarEmpLabCli\": \"\",\r\n                  \"SalEmpLabCli\": \"\",\r\n                  \"NomConEmpLabCli\": \"\",\r\n                  \"TelConEmpLabCli\": \"\",\r\n                  \"ObsConLabli\": \"\"\r\n            },\r\n            \"CarConEmpLabCli\": \"\",\r\n            \"NumIdeConOri\": \"\",\r\n            \"DesCarInfCon\": \"\",\r\n            \"TipVivCli\": [\"F\"],\r\n            \"NomFamViv\": \"jose alejandro vesga\",\r\n            \"ParFamViv\": [\"HER\"],\r\n            \"CanArrCasFam\": \"NO\",\r\n            \"ValArrCanFam\": \"\",\r\n            \"TelFamArr\": \"\",\r\n            \"CelFamArr\": \"\",\r\n            \"TieResViv\": \"12\",\r\n            \"EsLegViv\": \"SI\",\r\n            \"EstPreTit\": [\"3\"],\r\n            \"FotRecPubTit\": {\r\n                  \"FileUrl\": \"\",\r\n                  \"FileName\": \"\"\r\n            },\r\n            \"TieMasBieInm\": \"NO\",\r\n            \"CanBieInmAdi\": \"\",\r\n            \"EsLegBieInmAdi\": \"\",\r\n            \"BieInmAdiProFin\": \"\",\r\n            \"NomArrViv\": \"luz maria\",\r\n            \"ValArrViv\": \"100000\",\r\n            \"TelArrViv\": \"\",\r\n            \"CelArrViv\": \"3124296824\",\r\n            \"ObsArrAct\": \"\",\r\n            \"AntVivArr\": \"\",\r\n            \"NomArrAnt\": \"carlos humberto\",\r\n            \"ValArrAnt\": \"100000\",\r\n            \"TelArrAnt\": \"\",\r\n            \"CelArrAnt\": \"317584712\",\r\n            \"ObsArrAnt\": \"\",\r\n            \"CueAguPotViv\": \"SI\",\r\n            \"CueAccInt\": \"SI\",\r\n            \"DesDonCon\": [\"2\"],\r\n            \"ReaTraMonExt\": \"NO\",\r\n            \"NomSecEcoMon\": \"\",\r\n            \"TipMonCom\": [\"1\"],\r\n            \"MonMenTra\": \"\",\r\n            \"FecPosNeg\": \"\",\r\n            \"FecExpNeg\": \"01/02/2015\",\r\n            \"NumEmpFijNeg\": \"1\",\r\n            \"NumEmpTemNeg\": \"0\",\r\n            \"NumEmpNeg\": \"1\",\r\n            \"NegTieCamCom\": \"NO\",\r\n            \"TipLocNeg\": [\"2\"],\r\n            \"NomComArrNeg\": \"luz maria\",\r\n            \"TelArrNeg\": \"\",\r\n            \"CelArrNeg\": \"3124296824\",\r\n            \"CanArrNeg\": \"0\",\r\n            \"FecFunLoc\": \"\",\r\n            \"ObsArrLoc\": \"\",\r\n            \"NomVerZonCom\": \"\",\r\n            \"DirVerZonCom\": \"\",\r\n            \"ZonTieActEco\": \"\",\r\n            \"EsCliVigVerZonCom\": \"\",\r\n            \"EstIntCreVerZonCom\": \"\",\r\n            \"ProVisVerZonCom\": \"\",\r\n            \"EstDelNeg\": [\"1\"],\r\n            \"CanTitIguViv\": \"\",\r\n            \"CuoMenPuePag\": \"250000\",\r\n            \"DiaDePagOpo\": \"\",\r\n            \"ComAnaCre\": \"cliente nuevo para fundación de la mujer, buena referenciacion, buena calidad de vida y un buen estado de salud, cuenta con antigüedad de un año del negocio, se mitiga riesgo colocandole codeudor y con su diversificación de ingresos. el plan de inversión es para la compra de dos planchas y el dinero restante para  mercancía al por mayor.\"\r\n      }\r\n}"
				},
				"url": {
					"raw": "https://gather-api.azure-api.net/fdlm-api/api/Instances/putValue",
					"protocol": "https",
					"host": [
						"gather-api",
						"azure-api",
						"net"
					],
					"path": [
						"fdlm-api",
						"api",
						"Instances",
						"putValue"
					]
				}
			},
			"response": []
		},
		{
			"name": "14. Procesar Requisito Análisis",
			"event": [
				{
					"listen": "test",
					"script": {
						"id": "4454a51d-2631-4fc5-a1b0-daa933918412",
						"exec": [
							"pm.test(\"Status code is 200\", function () {",
							"    pm.response.to.have.status(200);",
							"});"
						],
						"type": "text/javascript"
					}
				}
			],
			"request": {
				"method": "PUT",
				"header": [
					{
						"key": "Content-Type",
						"name": "Content-Type",
						"type": "text",
						"value": "application/json"
					},
					{
						"key": "agentId",
						"type": "text",
						"value": "{{agentId-asesor}}"
					},
					{
						"key": "Authorization",
						"type": "text",
						"value": "Bearer {{access_token}}"
					},
					{
						"key": "Ocp-Apim-Subscription-Key",
						"type": "text",
						"value": "{{apim-subscription-key}}"
					},
					{
						"key": "tenantId",
						"type": "text",
						"value": "{{tenantId}}"
					}
				],
				"body": {
					"mode": "raw",
					"raw": "{\n\t\"instanceId\": \"{{instanceId}}\", \n\t\"containerId\": \"9580909E-777F-4F12-A93A-5F4A27E24AD6\"\n}"
				},
				"url": {
					"raw": "https://gather-api.azure-api.net/fdlm-api/api/Instances/putProcessInstance",
					"protocol": "https",
					"host": [
						"gather-api",
						"azure-api",
						"net"
					],
					"path": [
						"fdlm-api",
						"api",
						"Instances",
						"putProcessInstance"
					]
				}
			},
			"response": []
		},
		{
			"name": "15. Obtener instancia Análisis",
			"event": [
				{
					"listen": "test",
					"script": {
						"id": "012542e4-26ec-41a1-91fe-e7a5aa6dd0ee",
						"exec": [
							"pm.test(\"Status code is 200\", function () {",
							"    pm.response.to.have.status(200);",
							"});",
							"",
							"pm.test(\"trae análisis completa\", function (){",
							"    let analisis = \"9580909E-777F-4F12-A93A-5F4A27E24AD6\";",
							"    let status = pm.response.json().values.containers[analisis].customStatus;",
							"    pm.expect(status).to.eql(5);",
							"});",
							"",
							"pm.test(\"trae toma decision abierta\", function (){",
							"    let presolicitud = \"7BAAE610-AEEA-4DCC-A7DD-3D6E18A3347F\";",
							"    let status = pm.response.json().values.containers[presolicitud].customStatus;",
							"    pm.expect(status).to.eql(1);",
							"});"
						],
						"type": "text/javascript"
					}
				}
			],
			"request": {
				"method": "GET",
				"header": [
					{
						"key": "Content-Type",
						"type": "text",
						"value": "{{content-type}}"
					},
					{
						"key": "Authorization",
						"type": "text",
						"value": "Bearer {{access_token}}"
					},
					{
						"key": "Ocp-Apim-Subscription-Key",
						"value": "{{apim-subscription-key}}"
					},
					{
						"key": "tenantId",
						"type": "text",
						"value": "{{tenantId}}"
					}
				],
				"body": {
					"mode": "raw",
					"raw": ""
				},
				"url": {
					"raw": "https://gather-api.azure-api.net/fdlm-api/api/Instances/{{instanceId}}",
					"protocol": "https",
					"host": [
						"gather-api",
						"azure-api",
						"net"
					],
					"path": [
						"fdlm-api",
						"api",
						"Instances",
						"{{instanceId}}"
					]
				}
			},
			"response": []
		},
		{
			"name": "16. Guardado parcial Toma Decisión",
			"event": [
				{
					"listen": "test",
					"script": {
						"id": "4454a51d-2631-4fc5-a1b0-daa933918412",
						"exec": [
							"pm.test(\"Status code is 200\", function () {",
							"    pm.response.to.have.status(200);",
							"});"
						],
						"type": "text/javascript"
					}
				}
			],
			"request": {
				"method": "PUT",
				"header": [
					{
						"key": "Content-Type",
						"name": "Content-Type",
						"value": "application/json",
						"type": "text"
					},
					{
						"key": "agentId",
						"type": "text",
						"value": "{{agentId-asesor}}"
					},
					{
						"key": "Authorization",
						"type": "text",
						"value": "Bearer {{access_token}}"
					},
					{
						"key": "Ocp-Apim-Subscription-Key",
						"type": "text",
						"value": "{{apim-subscription-key}}"
					},
					{
						"key": "tenantId",
						"type": "text",
						"value": "{{tenantId}}"
					}
				],
				"body": {
					"mode": "raw",
					"raw": "{\n   \"instanceId\":  \"{{instanceId}}\",\n   \"containerId\": \"7BAAE610-AEEA-4DCC-A7DD-3D6E18A3347F\",\n   \"values\": {\n      \n      \"CliRelCueCob\":\"Si\",\n      \"NumCliCueCob\":\"2\",\n      \"ObsCuePorCob\": \"cuenta con dos clientes\",\n      \"MonCuePorCob\": \"2000000\",\n      \"IncCueCob\" : \"1000000\",\n      \"TotCuePorCob\":\"1000000\"\n   }\n}"
				},
				"url": {
					"raw": "https://gather-api.azure-api.net/fdlm-api/api/Instances/putValue",
					"protocol": "https",
					"host": [
						"gather-api",
						"azure-api",
						"net"
					],
					"path": [
						"fdlm-api",
						"api",
						"Instances",
						"putValue"
					]
				}
			},
			"response": []
		},
		{
			"name": "17. Procesar Requisito Toma Información",
			"request": {
				"method": "PUT",
				"header": [
					{
						"key": " Content-Type",
						"type": "text",
						"value": "{{content-type}}"
					},
					{
						"key": "agentId",
						"type": "text",
						"value": "{{agentId-asesor}}"
					},
					{
						"key": "Authorization",
						"type": "text",
						"value": "Bearer {{access_token}}"
					},
					{
						"key": "Ocp-Apim-Subscription-Key",
						"type": "text",
						"value": "{{apim-subscription-key}}"
					},
					{
						"key": "tenantId",
						"type": "text",
						"value": "{{tenantId}}"
					},
					{
						"key": "Content-Type",
						"name": "Content-Type",
						"type": "text",
						"value": "application/json",
						"disabled": true
					}
				],
				"body": {
					"mode": "raw",
					"raw": "{\n\t\"instanceId\": \"{{instanceId}}\", \n\t\"containerId\": \"7BAAE610-AEEA-4DCC-A7DD-3D6E18A3347F\"\n}"
				},
				"url": {
					"raw": "https://gather-api.azure-api.net/fdlm-api/api/Instances/putProcessInstance",
					"protocol": "https",
					"host": [
						"gather-api",
						"azure-api",
						"net"
					],
					"path": [
						"fdlm-api",
						"api",
						"Instances",
						"putProcessInstance"
					]
				}
			},
			"response": []
		},
		{
			"name": "18. Obtener instancia Toma Información",
			"event": [
				{
					"listen": "test",
					"script": {
						"id": "012542e4-26ec-41a1-91fe-e7a5aa6dd0ee",
						"exec": [
							"pm.test(\"Status code is 200\", function () {",
							"    pm.response.to.have.status(200);",
							"});",
							"",
							"pm.test(\"trae toma decision completa\", function (){",
							"    let decision = \"7BAAE610-AEEA-4DCC-A7DD-3D6E18A3347F\";",
							"    let status = pm.response.json().values.containers[decision].customStatus;",
							"    pm.expect(status).to.eql(2);",
							"});",
							"",
							"pm.test(\"trae referencias abierta\", function (){",
							"    let referencias = \"3F6F9972-901B-49AB-86CB-4E07AFA51C57\";",
							"    let status = pm.response.json().values.containers[referencias].customStatus;",
							"    pm.expect(status).to.eql(1);",
							"});"
						],
						"type": "text/javascript"
					}
				}
			],
			"request": {
				"method": "GET",
				"header": [
					{
						"key": "Content-Type",
						"value": "{{content-type}}",
						"type": "text"
					},
					{
						"key": "Authorization",
						"value": "Bearer {{access_token}}",
						"type": "text"
					},
					{
						"key": "Ocp-Apim-Subscription-Key",
						"value": "{{apim-subscription-key}}"
					},
					{
						"key": "tenantId",
						"value": "{{tenantId}}",
						"type": "text"
					}
				],
				"body": {
					"mode": "raw",
					"raw": ""
				},
				"url": {
					"raw": "https://gather-api.azure-api.net/fdlm-api/api/Instances/{{instanceId}}",
					"protocol": "https",
					"host": [
						"gather-api",
						"azure-api",
						"net"
					],
					"path": [
						"fdlm-api",
						"api",
						"Instances",
						"{{instanceId}}"
					]
				}
			},
			"response": []
		},
		{
			"name": "19. Guardado parcial Referencias Garantías",
			"event": [
				{
					"listen": "test",
					"script": {
						"id": "4454a51d-2631-4fc5-a1b0-daa933918412",
						"exec": [
							"pm.test(\"Status code is 200\", function () {",
							"    pm.response.to.have.status(200);",
							"});"
						],
						"type": "text/javascript"
					}
				}
			],
			"request": {
				"method": "PUT",
				"header": [
					{
						"key": "Content-Type",
						"name": "Content-Type",
						"value": "application/json",
						"type": "text"
					},
					{
						"key": "agentId",
						"type": "text",
						"value": "{{agentId-asesor}}"
					},
					{
						"key": "Authorization",
						"type": "text",
						"value": "Bearer {{access_token}}"
					},
					{
						"key": "Ocp-Apim-Subscription-Key",
						"type": "text",
						"value": "{{apim-subscription-key}}"
					},
					{
						"key": "tenantId",
						"type": "text",
						"value": "{{tenantId}}"
					}
				],
				"body": {
					"mode": "raw",
					"raw": "{\n   \"instanceId\":  \"{{instanceId}}\",\n   \"containerId\": \"3F6F9972-901B-49AB-86CB-4E07AFA51C57\",\n   \"values\": {\n      \n      \"RefFam\": [\n            {\n               \"Cantidad\":\"\",\n               \"Unidad\":\"\",\n               \"Despricion\":\"\",\n               \"PrecioCompraUnidad\":\"\",\n               \"PrecioVentaUnidad\":\"\",\n               \"MargenUtilidad\":\"\",\n               \"ValorTotal\":\"\"\n            },\n            {\n               \"Cantidad\":\"\",\n               \"Unidad\":\"\",\n               \"Despricion\":\"\",\n               \"PrecioCompraUnidad\":\"\",\n               \"PrecioVentaUnidad\":\"\",\n               \"MargenUtilidad\":\"\",\n               \"ValorTotal\":\"\"\n            }\n      ],\n      \"RefPer\": [\n            {\n                  \"Cantidad\":\"\",\n                  \"Unidad\":\"\",\n                  \"Despricion\":\"\",\n                  \"PrecioCompraUnidad\":\"\",\n                  \"PrecioVentaUnidad\":\"\",\n                  \"MargenUtilidad\":\"\",\n                  \"ValorTotal\":\"\"\n            },\n            {\n                  \"Cantidad\":\"\",\n                  \"Unidad\":\"\",\n                  \"Despricion\":\"\",\n                  \"PrecioCompraUnidad\":\"\",\n                  \"PrecioVentaUnidad\":\"\",\n                  \"MargenUtilidad\":\"\",\n                  \"ValorTotal\":\"\"\n            }\n      ],\n      \"RefComCli\":[\n         {\n            \"Cantidad\":\"\",\n            \"Unidad\":\"\",\n            \"Despricion\":\"\",\n            \"PorcenajeProceso\":\"\",\n            \"CostoUnidad\":\"\",\n            \"CostoEstimadoUnidad\":\"\",\n            \"ValorTotal\":\"\"\n         },\n         {\n            \"Cantidad\":\"\",\n            \"Unidad\":\"\",\n            \"Despricion\":\"\",\n            \"PorcenajeProceso\":\"\",\n            \"CostoUnidad\":\"\",\n            \"CostoEstimadoUnidad\":\"\",\n            \"ValorTotal\":\"\"\n         }\n      ],\n      \"CanRefFamCon\":\"\",\n      \"CanRefComCon\":\"\",\n      \"RefBanCli\":[\n         {\n               \"Cantidad\":\"\",\n               \"Unidad\":\"\",\n               \"Despricion\":\"\",\n               \"PrecioCompraUnidad\":\"\",\n               \"PrecioVentaUnidad\":\"\",\n               \"MargenUtilidad\":\"\",\n               \"ValorTotal\":\"\"\n            },\n            {\n               \"Cantidad\":\"\",\n               \"Unidad\":\"\",\n               \"Despricion\":\"\",\n               \"PrecioCompraUnidad\":\"\",\n               \"PrecioVentaUnidad\":\"\",\n               \"MargenUtilidad\":\"\",\n               \"ValorTotal\":\"\"\n            }\n      ],\n      \"RefCli\":[\n         {\n               \"Cantidad\":\"\",\n               \"Unidad\":\"\",\n               \"Despricion\":\"\",\n               \"PrecioCompraUnidad\":\"\",\n               \"PrecioVentaUnidad\":\"\",\n               \"MargenUtilidad\":\"\",\n               \"ValorTotal\":\"\"\n            },\n            {\n               \"Cantidad\":\"\",\n               \"Unidad\":\"\",\n               \"Despricion\":\"\",\n               \"PrecioCompraUnidad\":\"\",\n               \"PrecioVentaUnidad\":\"\",\n               \"MargenUtilidad\":\"\",\n               \"ValorTotal\":\"\"\n            }\n      ],\n      \"Cod\":[\n         {\n               \"Cantidad\":\"\",\n               \"Unidad\":\"\",\n               \"Despricion\":\"\",\n               \"PrecioCompraUnidad\":\"\",\n               \"PrecioVentaUnidad\":\"\",\n               \"MargenUtilidad\":\"\",\n               \"ValorTotal\":\"\"\n            },\n            {\n               \"Cantidad\":\"\",\n               \"Unidad\":\"\",\n               \"Despricion\":\"\",\n               \"PrecioCompraUnidad\":\"\",\n               \"PrecioVentaUnidad\":\"\",\n               \"MargenUtilidad\":\"\",\n               \"ValorTotal\":\"\"\n            }\n      ],\n      \"CanCodCom\":\"\",\n      \"ValTotGarCod\":\"\",\n      \"TipGarCre\":\"\",\n      \"CanGarCli\":\"\",\n      \"Ppi7_HogTieLav\":\"\",\n      \"Ppi8_HogTieHorMic\":\"\",\n      \"Ppi9_HogTieCarPar\":\"\",\n      \"TitConPosSma\":\"\",\n      \"Fot1GarCli\": {\n            \"FileUrl\":\"\",\n            \"FileName\":\"\"\n      },\n      \"Fot2GarCli\": {\n            \"FileUrl\":\"\",\n            \"FileName\":\"\"\n      },\n      \"Fot1GarCliSolCor\": {\n            \"FileUrl\":\"\",\n            \"FileName\":\"\"\n      },\n      \"Fot2GarCliSolCor\": {\n            \"FileUrl\":\"\",\n            \"FileName\":\"\"\n      }\n   }\n}\n"
				},
				"url": {
					"raw": "https://gather-api.azure-api.net/fdlm-api/api/Instances/putValue",
					"protocol": "https",
					"host": [
						"gather-api",
						"azure-api",
						"net"
					],
					"path": [
						"fdlm-api",
						"api",
						"Instances",
						"putValue"
					]
				}
			},
			"response": []
		},
		{
			"name": "20. Procesar Requisito Referencias Garantías",
			"event": [
				{
					"listen": "test",
					"script": {
						"id": "10e117d3-885a-4f74-b781-07738e8ef17d",
						"exec": [
							"pm.test(\"Status code is 200\", function () {",
							"    pm.response.to.have.status(200);",
							"});"
						],
						"type": "text/javascript"
					}
				}
			],
			"request": {
				"method": "PUT",
				"header": [
					{
						"key": " Content-Type",
						"type": "text",
						"value": "{{content-type}}"
					},
					{
						"key": "agentId",
						"type": "text",
						"value": "{{agentId-asesor}}"
					},
					{
						"key": "Authorization",
						"type": "text",
						"value": "Bearer {{access_token}}"
					},
					{
						"key": "Ocp-Apim-Subscription-Key",
						"type": "text",
						"value": "{{apim-subscription-key}}"
					},
					{
						"key": "tenantId",
						"type": "text",
						"value": "{{tenantId}}"
					},
					{
						"key": "Content-Type",
						"name": "Content-Type",
						"type": "text",
						"value": "application/json",
						"disabled": true
					}
				],
				"body": {
					"mode": "raw",
					"raw": "{\n\t\"instanceId\": \"{{instanceId}}\", \n\t\"containerId\": \"3F6F9972-901B-49AB-86CB-4E07AFA51C57\"\n}"
				},
				"url": {
					"raw": "https://gather-api.azure-api.net/fdlm-api/api/Instances/putProcessInstance",
					"protocol": "https",
					"host": [
						"gather-api",
						"azure-api",
						"net"
					],
					"path": [
						"fdlm-api",
						"api",
						"Instances",
						"putProcessInstance"
					]
				}
			},
			"response": []
		},
		{
			"name": "21. Obtener instancia Referencias Garantías",
			"event": [
				{
					"listen": "test",
					"script": {
						"id": "012542e4-26ec-41a1-91fe-e7a5aa6dd0ee",
						"exec": [
							"pm.test(\"Status code is 200\", function () {",
							"    pm.response.to.have.status(200);",
							"});",
							"",
							"pm.test(\"trae referencias completo\", function (){",
							"    let referencias = \"3F6F9972-901B-49AB-86CB-4E07AFA51C57\";",
							"    let status = pm.response.json().values.containers[referencias].customStatus;",
							"    pm.expect(status).to.eql(2);",
							"});",
							"",
							"pm.test(\"trae polizas abierta\", function (){",
							"    let polizas = \"7BAAE610-AEEA-4DCC-A7DD-3D6E18A3347F\";",
							"    let status = pm.response.json().values.containers[polizas].customStatus;",
							"    pm.expect(status).to.eql(1);",
							"});"
						],
						"type": "text/javascript"
					}
				}
			],
			"request": {
				"method": "GET",
				"header": [
					{
						"key": "Content-Type",
						"value": "{{content-type}}",
						"type": "text"
					},
					{
						"key": "Authorization",
						"value": "Bearer {{access_token}}",
						"type": "text"
					},
					{
						"key": "Ocp-Apim-Subscription-Key",
						"value": "{{apim-subscription-key}}"
					},
					{
						"key": "tenantId",
						"value": "{{tenantId}}",
						"type": "text"
					}
				],
				"body": {
					"mode": "raw",
					"raw": ""
				},
				"url": {
					"raw": "https://gather-api.azure-api.net/fdlm-api/api/Instances/{{instanceId}}",
					"protocol": "https",
					"host": [
						"gather-api",
						"azure-api",
						"net"
					],
					"path": [
						"fdlm-api",
						"api",
						"Instances",
						"{{instanceId}}"
					]
				}
			},
			"response": []
		},
		{
			"name": "22. Guardado parcial Pólizas",
			"event": [
				{
					"listen": "test",
					"script": {
						"id": "4454a51d-2631-4fc5-a1b0-daa933918412",
						"exec": [
							"pm.test(\"Status code is 200\", function () {",
							"    pm.response.to.have.status(200);",
							"});"
						],
						"type": "text/javascript"
					}
				}
			],
			"request": {
				"method": "PUT",
				"header": [
					{
						"key": "Content-Type",
						"name": "Content-Type",
						"value": "application/json",
						"type": "text"
					},
					{
						"key": "agentId",
						"type": "text",
						"value": "{{agentId-asesor}}"
					},
					{
						"key": "Authorization",
						"type": "text",
						"value": "Bearer {{access_token}}"
					},
					{
						"key": "Ocp-Apim-Subscription-Key",
						"type": "text",
						"value": "{{apim-subscription-key}}"
					},
					{
						"key": "tenantId",
						"type": "text",
						"value": "{{tenantId}}"
					}
				],
				"body": {
					"mode": "raw",
					"raw": "{\n   \"instanceId\":  \"{{instanceId}}\",\n   \"containerId\": \"21D50DF8-A522-4E58-9FD8-90F8916EBEEF\",\n   \"values\": {\n      \"DesAdqPolTuHijSeg\": \"Si\",\n      \"ParBenTuHijSeg\": [\"HI\"],\n      \"CanBenPolTuHijSeg\": \"\",\n      \"DesAdqPlaPreExe\": \"No\",\n      \"DecNoPadEnfCroPolVid\": \"No\",\n      \"PlaTitPolVid\": \"29\",\n      \"SumPorTitPolVid\": \"100\",\n      \"DesPolCon\": \"No\",\n      \"DesAdqPolDan\": \"No\",\n      \"DesAseEdi\": \"No\",\n      \"DesAseCon\": \"No\",\n      \"DesAgrRieAdi\": \"No\",\n      \"DesAseEdiAdi\": \"No\",\n      \"PlaCobEdiAdi\": \"\",\n      \"DesAseConAdi\": \"No\",\n      \"DesAseSubAdi\": \"NO\"\n   }\n}"
				},
				"url": {
					"raw": "https://gather-api.azure-api.net/fdlm-api/api/Instances/putValue",
					"protocol": "https",
					"host": [
						"gather-api",
						"azure-api",
						"net"
					],
					"path": [
						"fdlm-api",
						"api",
						"Instances",
						"putValue"
					]
				}
			},
			"response": []
		},
		{
			"name": "23. Procesar Requisito Pólizas",
			"request": {
				"method": "PUT",
				"header": [
					{
						"key": " Content-Type",
						"type": "text",
						"value": "{{content-type}}"
					},
					{
						"key": "agentId",
						"type": "text",
						"value": "{{agentId-asesor}}"
					},
					{
						"key": "Authorization",
						"type": "text",
						"value": "Bearer {{access_token}}"
					},
					{
						"key": "Ocp-Apim-Subscription-Key",
						"type": "text",
						"value": "{{apim-subscription-key}}"
					},
					{
						"key": "tenantId",
						"type": "text",
						"value": "{{tenantId}}"
					},
					{
						"key": "Content-Type",
						"name": "Content-Type",
						"type": "text",
						"value": "application/json",
						"disabled": true
					}
				],
				"body": {
					"mode": "raw",
					"raw": "{\n\t\"instanceId\": \"{{instanceId}}\", \n\t\"containerId\": \"21D50DF8-A522-4E58-9FD8-90F8916EBEEF\"\n}"
				},
				"url": {
					"raw": "https://gather-api.azure-api.net/fdlm-api/api/Instances/putProcessInstance",
					"protocol": "https",
					"host": [
						"gather-api",
						"azure-api",
						"net"
					],
					"path": [
						"fdlm-api",
						"api",
						"Instances",
						"putProcessInstance"
					]
				}
			},
			"response": []
		},
		{
			"name": "24. Obtener instancia Pólizas",
			"event": [
				{
					"listen": "test",
					"script": {
						"id": "012542e4-26ec-41a1-91fe-e7a5aa6dd0ee",
						"exec": [
							"pm.test(\"Status code is 200\", function () {",
							"    pm.response.to.have.status(200);",
							"});",
							"",
							"pm.test(\"trae polizas completo\", function (){",
							"    let polizas = \"7BAAE610-AEEA-4DCC-A7DD-3D6E18A3347F\";",
							"    let status = pm.response.json().values.containers[polizas].customStatus;",
							"    pm.expect(status).to.eql(2);",
							"});",
							"",
							"pm.test(\"trae evaluacion abierto\", function (){",
							"    let evaluacion = \"F5716E1C-1B22-48B6-A76C-2BF769D4CC1B\";",
							"    let status = pm.response.json().values.containers[evaluacion].customStatus;",
							"    pm.expect(status).to.eql(1);",
							"});"
						],
						"type": "text/javascript"
					}
				}
			],
			"request": {
				"method": "GET",
				"header": [
					{
						"key": "Content-Type",
						"type": "text",
						"value": "{{content-type}}"
					},
					{
						"key": "Authorization",
						"type": "text",
						"value": "Bearer {{access_token}}"
					},
					{
						"key": "Ocp-Apim-Subscription-Key",
						"value": "{{apim-subscription-key}}"
					},
					{
						"key": "tenantId",
						"type": "text",
						"value": "{{tenantId}}"
					}
				],
				"body": {
					"mode": "raw",
					"raw": ""
				},
				"url": {
					"raw": "https://gather-api.azure-api.net/fdlm-api/api/Instances/{{instanceId}}",
					"protocol": "https",
					"host": [
						"gather-api",
						"azure-api",
						"net"
					],
					"path": [
						"fdlm-api",
						"api",
						"Instances",
						"{{instanceId}}"
					]
				}
			},
			"response": []
		},
		{
			"name": "25. Guardado parcial Evaluación",
			"event": [
				{
					"listen": "test",
					"script": {
						"id": "4454a51d-2631-4fc5-a1b0-daa933918412",
						"exec": [
							"pm.test(\"Status code is 200\", function () {",
							"    pm.response.to.have.status(200);",
							"});"
						],
						"type": "text/javascript"
					}
				}
			],
			"request": {
				"method": "PUT",
				"header": [
					{
						"key": "Content-Type",
						"name": "Content-Type",
						"value": "application/json",
						"type": "text"
					},
					{
						"key": "agentId",
						"type": "text",
						"value": "{{agentId-asesor}}"
					},
					{
						"key": "Authorization",
						"type": "text",
						"value": "Bearer {{access_token}}"
					},
					{
						"key": "Ocp-Apim-Subscription-Key",
						"type": "text",
						"value": "{{apim-subscription-key}}"
					},
					{
						"key": "tenantId",
						"type": "text",
						"value": "{{tenantId}}"
					}
				],
				"body": {
					"mode": "raw",
					"raw": "{\n   \"instanceId\":  \"{{instanceId}}\",\n   \"containerId\": \"F5716E1C-1B22-48B6-A76C-2BF769D4CC1B\",\n   \"values\": {\n      \"FecEstCre\":\"25/12/2019\",\n      \"EfeBanEva\":\"450000\",\n      \"EfeBanAntEva\":\"300000\",\n      \"TotInvEva\":\"630000\",\n      \"TotInvPorEva\":\"\",\n      \"TotActCorEva\":\"843000\",\n      \"TotActCorPorEva\":\"\",\n      \"TotActFijEva\":\"2100000\",\n      \"TotActFijPorEva\":\"\",\n      \"TotActEva\":\"2943000\",\n      \"CreProEva\":\"Si\",\n      \"SalCreProEva\":\"0\",\n      \"CreFunCorPlaEva\":\"0\",\n      \"PasCorEva\":\"0.0\"\n\n   }\n}"
				},
				"url": {
					"raw": "https://gather-api.azure-api.net/fdlm-api/api/Instances/putValue",
					"protocol": "https",
					"host": [
						"gather-api",
						"azure-api",
						"net"
					],
					"path": [
						"fdlm-api",
						"api",
						"Instances",
						"putValue"
					]
				}
			},
			"response": []
		},
		{
			"name": "26. Procesar Requisito Evaluación",
			"event": [
				{
					"listen": "test",
					"script": {
						"id": "ca7d9e92-e675-4aa0-9e72-b9a55a9617ef",
						"exec": [
							"pm.test(\"Status code is 200\", function () {",
							"    pm.response.to.have.status(200);",
							"});"
						],
						"type": "text/javascript"
					}
				}
			],
			"request": {
				"method": "PUT",
				"header": [
					{
						"key": " Content-Type",
						"type": "text",
						"value": "{{content-type}}"
					},
					{
						"key": "agentId",
						"type": "text",
						"value": "{{agentId-asesor}}"
					},
					{
						"key": "Authorization",
						"type": "text",
						"value": "Bearer {{access_token}}"
					},
					{
						"key": "Ocp-Apim-Subscription-Key",
						"type": "text",
						"value": "{{apim-subscription-key}}"
					},
					{
						"key": "tenantId",
						"type": "text",
						"value": "{{tenantId}}"
					},
					{
						"key": "Content-Type",
						"name": "Content-Type",
						"type": "text",
						"value": "application/json",
						"disabled": true
					}
				],
				"body": {
					"mode": "raw",
					"raw": "{\n\t\"instanceId\": \"{{instanceId}}\", \n\t\"containerId\": \"CentralesRiesgo\"\n}"
				},
				"url": {
					"raw": "https://gather-api.azure-api.net/fdlm-api/api/Instances/putProcessInstance",
					"protocol": "https",
					"host": [
						"gather-api",
						"azure-api",
						"net"
					],
					"path": [
						"fdlm-api",
						"api",
						"Instances",
						"putProcessInstance"
					]
				}
			},
			"response": []
		},
		{
			"name": "27. Obtener instancia Evaluación",
			"event": [
				{
					"listen": "test",
					"script": {
						"id": "012542e4-26ec-41a1-91fe-e7a5aa6dd0ee",
						"exec": [
							"pm.test(\"Status code is 200\", function () {",
							"    pm.response.to.have.status(200);",
							"});",
							"",
							"pm.test(\"trae evaluacion completo\", function (){",
							"    let evaluacion = \"F5716E1C-1B22-48B6-A76C-2BF769D4CC1B\";",
							"    let status = pm.response.json().values.containers[evaluacion].customStatus;",
							"    pm.expect(status).to.eql(2);",
							"});",
							"",
							"pm.test(\"trae recomendación abierto\", function (){",
							"    let recomendacion = \"7DA96C69-418F-4C36-9DEF-10B309F5F528\";",
							"    let status = pm.response.json().values.containers[recomendacion].customStatus;",
							"    pm.expect(status).to.eql(1);",
							"});"
						],
						"type": "text/javascript"
					}
				}
			],
			"request": {
				"method": "GET",
				"header": [
					{
						"key": "Content-Type",
						"value": "{{content-type}}",
						"type": "text"
					},
					{
						"key": "Authorization",
						"value": "Bearer {{access_token}}",
						"type": "text"
					},
					{
						"key": "Ocp-Apim-Subscription-Key",
						"value": "{{apim-subscription-key}}"
					},
					{
						"key": "tenantId",
						"value": "{{tenantId}}",
						"type": "text"
					}
				],
				"body": {
					"mode": "raw",
					"raw": ""
				},
				"url": {
					"raw": "https://gather-api.azure-api.net/fdlm-api/api/Instances/{{instanceId}}",
					"protocol": "https",
					"host": [
						"gather-api",
						"azure-api",
						"net"
					],
					"path": [
						"fdlm-api",
						"api",
						"Instances",
						"{{instanceId}}"
					]
				}
			},
			"response": []
		},
		{
			"name": "28. Guardado parcial Recomendación",
			"event": [
				{
					"listen": "test",
					"script": {
						"id": "4454a51d-2631-4fc5-a1b0-daa933918412",
						"exec": [
							"pm.test(\"Status code is 200\", function () {",
							"    pm.response.to.have.status(200);",
							"});"
						],
						"type": "text/javascript"
					}
				}
			],
			"request": {
				"method": "PUT",
				"header": [
					{
						"key": "Content-Type",
						"name": "Content-Type",
						"value": "application/json",
						"type": "text"
					},
					{
						"key": "agentId",
						"type": "text",
						"value": "{{agentId-asesor}}"
					},
					{
						"key": "Authorization",
						"type": "text",
						"value": "Bearer {{access_token}}"
					},
					{
						"key": "Ocp-Apim-Subscription-Key",
						"type": "text",
						"value": "{{apim-subscription-key}}"
					},
					{
						"key": "tenantId",
						"type": "text",
						"value": "{{tenantId}}"
					}
				],
				"body": {
					"mode": "raw",
					"raw": "{\n   \"instanceId\":  \"{{instanceId}}\",\n   \"containerId\": \"7DA96C69-418F-4C36-9DEF-10B309F5F528\",\n   \"values\": {\n      \"ProSolEsp\": \"389\",\n      \"MonSolEsp\": \"\",\n      \"PerSolEsp\": \"30\",\n      \"PlaSolEsp\": \"12\",\n      \"ProSug\": \"389\",\n      \"MonSug\": \"2100000\",\n      \"PerSug\": \"30\",\n      \"DesCre\": \"200\",\n      \"PlaSug\": \"12\",\n      \"MenResConRut\": \"Consulta Realizada\",\n      \"ValCuoRec\": \"235654\",\n      \"ValTotPolOfrCli\": \"71436\",\n      \"RutFor\": \"Cliente Visionario\"\n   }\n}"
				},
				"url": {
					"raw": "https://gather-api.azure-api.net/fdlm-api/api/Instances/putValue",
					"protocol": "https",
					"host": [
						"gather-api",
						"azure-api",
						"net"
					],
					"path": [
						"fdlm-api",
						"api",
						"Instances",
						"putValue"
					]
				}
			},
			"response": []
		},
		{
			"name": "29. Procesar Requisito Recomendación",
			"event": [
				{
					"listen": "test",
					"script": {
						"id": "956f51e0-e667-42cd-b861-c11985ea5342",
						"exec": [
							"pm.test(\"Status code is 200\", function () {",
							"    pm.response.to.have.status(200);",
							"});"
						],
						"type": "text/javascript"
					}
				}
			],
			"request": {
				"method": "PUT",
				"header": [
					{
						"key": " Content-Type",
						"type": "text",
						"value": "{{content-type}}"
					},
					{
						"key": "agentId",
						"type": "text",
						"value": "{{agentId-asesor}}"
					},
					{
						"key": "Authorization",
						"type": "text",
						"value": "Bearer {{access_token}}"
					},
					{
						"key": "Ocp-Apim-Subscription-Key",
						"type": "text",
						"value": "{{apim-subscription-key}}"
					},
					{
						"key": "tenantId",
						"type": "text",
						"value": "{{tenantId}}"
					},
					{
						"key": "Content-Type",
						"name": "Content-Type",
						"type": "text",
						"value": "application/json",
						"disabled": true
					}
				],
				"body": {
					"mode": "raw",
					"raw": "{\n\t\"instanceId\": \"{{instanceId}}\", \n\t\"containerId\": \"7DA96C69-418F-4C36-9DEF-10B309F5F528\"\n}"
				},
				"url": {
					"raw": "https://gather-api.azure-api.net/fdlm-api/api/Instances/putProcessInstance",
					"protocol": "https",
					"host": [
						"gather-api",
						"azure-api",
						"net"
					],
					"path": [
						"fdlm-api",
						"api",
						"Instances",
						"putProcessInstance"
					]
				}
			},
			"response": []
		},
		{
			"name": "30. Obtener instancia Recomendación",
			"event": [
				{
					"listen": "test",
					"script": {
						"id": "012542e4-26ec-41a1-91fe-e7a5aa6dd0ee",
						"exec": [
							"pm.test(\"Status code is 200\", function () {",
							"    pm.response.to.have.status(200);",
							"});",
							"",
							"pm.test(\"trae recomendación completo\", function (){",
							"    let recomendacion = \"7DA96C69-418F-4C36-9DEF-10B309F5F528\";",
							"    let status = pm.response.json().values.containers[recomendacion].customStatus;",
							"    pm.expect(status).to.eql(2);",
							"});"
						],
						"type": "text/javascript"
					}
				}
			],
			"request": {
				"method": "GET",
				"header": [
					{
						"key": "Content-Type",
						"value": "{{content-type}}",
						"type": "text"
					},
					{
						"key": "Authorization",
						"value": "Bearer {{access_token}}",
						"type": "text"
					},
					{
						"key": "Ocp-Apim-Subscription-Key",
						"value": "{{apim-subscription-key}}"
					},
					{
						"key": "tenantId",
						"value": "{{tenantId}}",
						"type": "text"
					}
				],
				"body": {
					"mode": "raw",
					"raw": ""
				},
				"url": {
					"raw": "https://gather-api.azure-api.net/fdlm-api/api/Instances/{{instanceId}}",
					"protocol": "https",
					"host": [
						"gather-api",
						"azure-api",
						"net"
					],
					"path": [
						"fdlm-api",
						"api",
						"Instances",
						"{{instanceId}}"
					]
				}
			},
			"response": []
		},
		{
			"name": "10. Guardado parcial Presolicitud Copy",
			"event": [
				{
					"listen": "test",
					"script": {
						"id": "4454a51d-2631-4fc5-a1b0-daa933918412",
						"exec": [
							"pm.test(\"Status code is 200\", function () {",
							"    pm.response.to.have.status(200);",
							"});"
						],
						"type": "text/javascript"
					}
				}
			],
			"request": {
				"method": "PUT",
				"header": [
					{
						"key": "Content-Type",
						"name": "Content-Type",
						"value": "application/json",
						"type": "text"
					},
					{
						"key": "agentId",
						"type": "text",
						"value": "{{agentId-asesor}}"
					},
					{
						"key": "Authorization",
						"type": "text",
						"value": "Bearer {{access_token}}"
					},
					{
						"key": "Ocp-Apim-Subscription-Key",
						"type": "text",
						"value": "{{apim-subscription-key}}"
					},
					{
						"key": "tenantId",
						"type": "text",
						"value": "{{tenantId}}"
					}
				],
				"body": {
					"mode": "raw",
					"raw": "{\n   \"instanceId\":  \"{{instanceId}}\",\n   \"containerId\": \"4FAE0F21-C80B-4851-AD0E-9D682D338280\",\n   \"values\": {\n      \"PersonData\":{\n            \"DatosId\": {\n                  \"PaisExpedicion\":[\"CO\"]\n            },\n            \"GenCli\": [\"F\"],\n            \"EstCivCli\": [\"C\"]\n      },\n      \"FecExpDocIdeCli\": \"05/05/2000\",\n      \"FecNacCli\": \"05/05/1993\",\n      \"CorEleCli\": \"diana@gmail.com\",\n      \"NomNeg\": \"La Lola\",\n      \"FecCreNeg\": \"09/12/2010\",\n      \"CanActCli\": [\"1\"],\n      \"NomSecEco1\": [\"1\" , \"314\"],\n      \"PlaInvCre\": [\n            {\n               \"CanPlaInv\": \"1\",\n               \"DesPlaInv\": \"Estanteria\",\n               \"ValPlaInv\": \"400000\"\n            },\n            {\n               \"CanPlaInv\": \"1\",\n               \"DesPlaInv\": \"Sillas\",\n               \"ValPlaInv\": \"500000\"\n            }\n      ],\n      \"MonSol\": \"3000000\",\n      \"PlaSol\": \"12\",\n      \"PerSol\": [\"30\"],\n      \"NumSolCre\": \"\",\n      \"TipSol\": [\"N\"],\n      \"ProSol\": [\"389\"]\n   }\n}"
				},
				"url": {
					"raw": "https://gather-api.azure-api.net/fdlm-api/api/Instances/putValue",
					"protocol": "https",
					"host": [
						"gather-api",
						"azure-api",
						"net"
					],
					"path": [
						"fdlm-api",
						"api",
						"Instances",
						"putValue"
					]
				}
			},
			"response": []
		}
	]
}