{
	"id": "afbf04fe-608d-4d88-917b-9646a4003223",
	"name": "Happy Path",
	"values": [
		{
			"key": "client_id",
			"value": "f966d472-2b92-4ddd-82e6-aec8179c7c03",
			"enabled": true
		},
		{
			"key": "password",
			"value": "Formiik123",
			"enabled": true
		},
		{
			"key": "username",
			"value": "admin.fdlm@fdlmb2c.onmicrosoft.com",
			"enabled": true
		},
		{
			"key": "grant_type",
			"value": "password",
			"enabled": true
		},
		{
			"key": "client_secret",
			"value": "+VFoDurwwxXUK49SCq5xfhIbFznpjXN+SZtndg0alx0=",
			"enabled": true
		},
		{
			"key": "resource",
			"value": "f966d472-2b92-4ddd-82e6-aec8179c7c03",
			"enabled": true
		},
		{
			"key": "apim-subscription-key",
			"value": "20e44c90f3f84621a37734c78512f894",
			"enabled": true
		},
		{
			"key": "tenantId",
			"value": "cd03d0b3-7569-435b-9b2d-857c640979de",
			"enabled": true
		},
		{
			"key": "content-type",
			"value": "application/json",
			"enabled": true
		},
		{
			"key": "agentId-asesor",
			"value": "47dfef8e-325e-40d7-888a-24b7f0bab94b",
			"enabled": true
		},
		{
			"key": "definitionId",
			"value": "24D48A1F-88EC-48F4-816B-F89971449EB2",
			"enabled": true
		},
		{
			"key": "access_token",
			"value": "",
			"enabled": true
		},
		{
			"key": "instanceId",
			"value": "",
			"enabled": true
		},
		{
			"key": "url",
			"value": "https://gather-api.azure-api.net/fdlm-api/api",
			"type": "text",
			"description": "",
			"enabled": true
		}
	],
	"_postman_variable_scope": "environment",
	"_postman_exported_at": "2019-05-13T17:16:01.050Z",
	"_postman_exported_using": "Postman/7.0.7"
}