{
    "root": {        
        "groupType": 0,
        "id": "0caab548-86a7-4ecb-a1a6-05c7d61aeac9",
        "name": "Gerencia Inclusión Financiera",
        "groupFolderId": "234f2563-697e-4990-8d8a-c05702625b5f",
        "responsables": [],
        "groups": [{
            "groupType": 0,
            "id": "f34f5fd7-ebd7-4770-bbb1-f952fe27c7c8",
            "name": "Dirección regional Inclusión financiera",
            "groupFolderId": "6025b3ef-409e-47cb-b5dc-2ff8f84c44ce",
            "responsables": [],
            "groups": [{
                "groupType": 2,
                "id": "0c2da201-5908-46f5-8dee-d0ff9b68b2cb",
                "name": "Oficinas",
                "members": [{
                    "name": "Oficina norte",
                    "id": "148a28bc-b150-49eb-a3e4-53614103efea",
                    "area": "Area norte",
                    "city": "Ciudad norte",
                    "address": "Direccion norte",
                    "phone": "0000000001",
                    "latitude": 77.18,
                    "longitude": 213,
                    "geofence": {}
                }],
                "sharedRoot": {
                    "groupType": 128,
                    "id": "8952173e-c748-483b-8a23-0df745d237d2",
                    "name": "Dirección de Oficina",
                    "memberGroupFolderId": {
                        "148a28bc-b150-49eb-a3e4-53614103efea": "63f99055-33df-441e-ae5c-99141cc0fdfd",
                        "09af65c4-8ff2-40c2-967a-0667b8402a5f": "09ef405d-e5e9-4bd7-aa1e-517969d50195"
                    },
                    "memberResponsables": {
                        "148a28bc-b150-49eb-a3e4-53614103efea": [{
                            "productId": "b1fb3b18-72f9-48cb-b546-8e37649dcb26",
                            "rolId": "a3603347-9e83-4f38-8911-94b82f4df68c",
                            "agentId": "968a7194-c009-4584-9730-76681a2f659a",
                            "folderId": "8edaacfa-4539-41aa-8c49-57e80128e38c"
                        }],
                        "09af65c4-8ff2-40c2-967a-0667b8402a5f": [{
                            "productId": "b1fb3b18-72f9-48cb-b546-8e37649dcb26",
                            "rolId": "a3603347-9e83-4f38-8911-94b82f4df68c",
                            "agentId": "1e80fd88-5e80-4eef-a3e3-ab4a0866a3b8",
                            "folderId": "90c85ab3-3a35-4492-bee5-e58707f217db"
                        }]
                    },
                    "groups": [{
                        "groupType": 129,
                        "id": "35c62c98-4e56-471c-836e-68185060f724",
                        "name": "Asesores de Inclusion",
                        "memberGroupFolderId": {
                            "148a28bc-b150-49eb-a3e4-53614103efea": "395cc92f-843f-4d5e-8190-4a2517ffde02",
                            "09af65c4-8ff2-40c2-967a-0667b8402a5f": "56f82178-3ca7-4f37-bd29-7d9fe797c2d4"
                        },
                        "memberResponsables": {
                            "148a28bc-b150-49eb-a3e4-53614103efea": [{
                                "geofence": {},
                                "productId": "b1fb3b18-72f9-48cb-b546-8e37649dcb26",
                                "rolId": "939783a4-be38-49e4-a2a8-025d2ff6b554",
                                "agentId": "a0ac08f5-14b9-40ee-ad83-efcc7c21f6ec",
                                "folderId": "ae7e574a-4e45-4030-81a2-317549728914"
                            }],
                            "09af65c4-8ff2-40c2-967a-0667b8402a5f": [{
                                "geofence": {},
                                "productId": "b1fb3b18-72f9-48cb-b546-8e37649dcb26",
                                "rolId": "939783a4-be38-49e4-a2a8-025d2ff6b554",
                                "agentId": "8a7360be-6490-4079-83ab-4b366923aa5e",
                                "folderId": "3a7f04d8-07b4-41df-b395-317152934dce"
                            }]
                        },
                        "memberFolders": {
                            "148a28bc-b150-49eb-a3e4-53614103efea": [{
                                "geofence": {},
                                "productId": "b1fb3b18-72f9-48cb-b546-8e37649dcb26",
                                "rolId": "a76664cd-1eb6-40be-becc-fdc5163f2d27",
                                "agentId": "4aace63e-762c-4dc7-a4b8-a813843ef0d7",
                                "folderId": "8268d5ff-1dd8-4322-9cb3-ecace24f11ab"
                            }, {
                                "geofence": {},
                                "productId": "b1fb3b18-72f9-48cb-b546-8e37649dcb26",
                                "rolId": "a76664cd-1eb6-40be-becc-fdc5163f2d27",
                                "agentId": "962e2296-0e35-4e7e-aab1-181fffa4416d",
                                "folderId": "9738707f-f89b-44a7-b941-88f453afd25f"
                            }],
                            "09af65c4-8ff2-40c2-967a-0667b8402a5f": [{
                                "geofence": {},
                                "productId": "b1fb3b18-72f9-48cb-b546-8e37649dcb26",
                                "rolId": "a76664cd-1eb6-40be-becc-fdc5163f2d27",
                                "agentId": "fadc285b-5113-4867-94b2-cded9f7931ce",
                                "folderId": "4dc7e824-167f-4f7a-be8c-30c882b4cc46"
                            }]
                        }
                    }, {
                        "groupType": 129,
                        "id": "15079bf2-f8b2-43ae-a00a-d15a72d37bb4",
                        "name": "Asesores Banca Comunal",
                        "memberGroupFolderId": {
                            "148a28bc-b150-49eb-a3e4-53614103efea": "c7a233b8-9f77-4f23-81d4-63a4742ca816",
                            "09af65c4-8ff2-40c2-967a-0667b8402a5f": "d86c7b27-4c83-4659-9cf0-4243e564f14b"
                        },
                        "memberResponsables": null,
                        "memberFolders": null
                    }]
                }
            }]
        }]
    }
}